// Jest Snapshot v1, https://goo.gl/fbAQLP

exports[`should render expenseList with empty message 1`] = `
<div>
  <p>
    No expenses
  </p>
  Expense List:
  <ul />
</div>
`;

exports[`should render expenseList with expenses 1`] = `
<div>
  Expense List:
  <ul>
    <li
      key="1"
    >
      <ExpenseItem
        amount={195}
        createdAt={0}
        description="Gum"
        id="1"
        note=""
      />
    </li>
    <li
      key="2"
    >
      <ExpenseItem
        amount={109500}
        createdAt={-345600000}
        description="Rent"
        id="2"
        note=""
      />
    </li>
    <li
      key="3"
    >
      <ExpenseItem
        amount={4500}
        createdAt={345600000}
        description="Credit Card"
        id="3"
        note=""
      />
    </li>
  </ul>
</div>
`;
