// Jest Snapshot v1, https://goo.gl/fbAQLP

exports[`should correctly render ExpensesSummary with multiple expenses 1`] = `
<div>
  <h1>
    Viewing 
    23
     
    expenses
     totalling 
    $2,344,264.10
  </h1>
</div>
`;

exports[`should correctly render ExpensesSummary with singular expense 1`] = `
<div>
  <h1>
    Viewing 
    1
     
    expense
     totalling 
    $0.04
  </h1>
</div>
`;
